{
  "message": "docs: Add robot API design documentation and update AGENTS.md\n\n- Document robot mode API design decisions and patterns\n- Update AGENTS.md with new workflow guidance\n- Sync beads issue tracking state\n- Add test_fix utility command\n\nCo-Authored-By: Claude <noreply@anthropic.com>",
  "files": [
    {
      "sha": "4e2462a3e405aedcf0ef6e376f58a596c83ea712",
      "filename": ".beads/issues.jsonl",
      "status": "modified",
      "additions": 20,
      "deletions": 19,
      "changes": 39,
      "blob_url": "https://github.com/Dicklesworthstone/ntm/blob/c98864c3f012306a491de0bf0b7a36e10262fcba/.beads%2Fissues.jsonl",
      "raw_url": "https://github.com/Dicklesworthstone/ntm/raw/c98864c3f012306a491de0bf0b7a36e10262fcba/.beads%2Fissues.jsonl",
      "contents_url": "https://api.github.com/repos/Dicklesworthstone/ntm/contents/.beads%2Fissues.jsonl?ref=c98864c3f012306a491de0bf0b7a36e10262fcba"
    },
    {
      "sha": "ab829a26532deff362be2b6711b1ac40b200f2a0",
      "filename": "AGENTS.md",
      "status": "modified",
      "additions": 15,
      "deletions": 0,
      "changes": 15,
      "blob_url": "https://github.com/Dicklesworthstone/ntm/blob/c98864c3f012306a491de0bf0b7a36e10262fcba/AGENTS.md",
      "raw_url": "https://github.com/Dicklesworthstone/ntm/raw/c98864c3f012306a491de0bf0b7a36e10262fcba/AGENTS.md",
      "contents_url": "https://api.github.com/repos/Dicklesworthstone/ntm/contents/AGENTS.md?ref=c98864c3f012306a491de0bf0b7a36e10262fcba",
      "patch": "@@ -86,6 +86,21 @@ When unsure of an API, look up current docs (late-2025) rather than guessing.\n \n ---\n \n+### Robot Mode API Design\n+\n+NTM provides a JSON API for AI agents via `--robot-*` flags. When working on or using this API:\n+\n+- **Design principles** are documented in `docs/robot-api-design.md` \u2014 read it first\n+- **Key patterns**:\n+  - Global commands: bool flags (`--robot-status`)\n+  - Session-scoped: `=SESSION` syntax (`--robot-send=myproject`)\n+  - Modifiers: unprefixed global flags (`--limit`, `--since`, `--type`)\n+- **Deprecation**: Old prefixed flags (e.g., `--cass-limit`) remain for backward compatibility but canonical unprefixed forms are preferred\n+- **Quick reference**: `ntm --robot-help`\n+- **Machine-readable schema**: `ntm --robot-capabilities`\n+\n+---\n+\n ## MCP Agent Mail \u2014 Multi-Agent Coordination\n \n Agent Mail is already available as an MCP server; do not treat it as a CLI you must shell out to. MCP Agent Mail *should* be available to you as an MCP server; if it's not, then flag to the user. They might need to start Agent Mail using the `am` alias or by running `cd \"<directory_where_they_installed_agent_mail>/mcp_agent_mail\" && bash scripts/run_server_with_token.sh` if the alias isn't available or isn't working."
    },
    {
      "sha": "79c4146ffdd4e8b685a65dd2216f2e423b140255",
      "filename": "cmd/test_fix/main.go",
      "status": "added",
      "additions": 53,
      "deletions": 0,
      "changes": 53,
      "blob_url": "https://github.com/Dicklesworthstone/ntm/blob/c98864c3f012306a491de0bf0b7a36e10262fcba/cmd%2Ftest_fix%2Fmain.go",
      "raw_url": "https://github.com/Dicklesworthstone/ntm/raw/c98864c3f012306a491de0bf0b7a36e10262fcba/cmd%2Ftest_fix%2Fmain.go",
      "contents_url": "https://api.github.com/repos/Dicklesworthstone/ntm/contents/cmd%2Ftest_fix%2Fmain.go?ref=c98864c3f012306a491de0bf0b7a36e10262fcba",
      "patch": "@@ -0,0 +1,53 @@\n+package main\n+\n+import (\n+\t\"fmt\"\n+\t\"os\"\n+\n+\t\"github.com/Dicklesworthstone/ntm/internal/agent\"\n+)\n+\n+func main() {\n+\tp := agent.NewParser()\n+\n+\t// Scenario: Agent ran tests (producing \"testing\" keyword) but has finished and is waiting.\n+\toutput := `Claude Opus 4.5\n+Running tests...\n+testing package internal/agent...\n+ok  \tgithub.com/Dicklesworthstone/ntm/internal/agent\t0.123s\n+Tests completed.\n+> `\n+\n+\tstate, err := p.Parse(output)\n+\tif err != nil {\n+\t\tfmt.Printf(\"Parse error: %v\\n\", err)\n+\t\tos.Exit(1)\n+\t}\n+\n+\tfmt.Printf(\"Parsed State:\\n\")\n+\tfmt.Printf(\"Type: %v\\n\", state.Type)\n+\tfmt.Printf(\"IsIdle: %v\\n\", state.IsIdle)\n+\tfmt.Printf(\"IsWorking: %v\\n\", state.IsWorking)\n+\n+\tsuccess := true\n+\tif state.Type != agent.AgentTypeClaudeCode {\n+\t\tfmt.Printf(\"FAIL: Expected Type ClaudeCode, got %v\\n\", state.Type)\n+\t\tsuccess = false\n+\t}\n+\n+\tif !state.IsIdle {\n+\t\tfmt.Printf(\"FAIL: Expected IsIdle=true\\n\")\n+\t\tsuccess = false\n+\t}\n+\n+\tif state.IsWorking {\n+\t\tfmt.Printf(\"FAIL: Expected IsWorking=false\\n\")\n+\t\tsuccess = false\n+\t}\n+\n+\tif success {\n+\t\tfmt.Println(\"SUCCESS: Test passed!\")\n+\t} else {\n+\t\tos.Exit(1)\n+\t}\n+}"
    },
    {
      "sha": "9c5dd134ae16c25c171e4f630550c2c08082f0fe",
      "filename": "docs/robot-api-design.md",
      "status": "added",
      "additions": 632,
      "deletions": 0,
      "changes": 632,
      "blob_url": "https://github.com/Dicklesworthstone/ntm/blob/c98864c3f012306a491de0bf0b7a36e10262fcba/docs%2Frobot-api-design.md",
      "raw_url": "https://github.com/Dicklesworthstone/ntm/raw/c98864c3f012306a491de0bf0b7a36e10262fcba/docs%2Frobot-api-design.md",
      "contents_url": "https://api.github.com/repos/Dicklesworthstone/ntm/contents/docs%2Frobot-api-design.md?ref=c98864c3f012306a491de0bf0b7a36e10262fcba",
      "patch": "@@ -0,0 +1,632 @@\n+# Robot Mode API Design Principles\n+\n+> **Authoritative Reference** for NTM robot mode API design.\n+> All robot commands MUST follow these principles for consistency.\n+\n+## Overview\n+\n+NTM's robot mode provides a JSON API for AI agents and automation tools to interact with tmux sessions and agent orchestration. This document establishes the canonical patterns that ensure a coherent, intuitive, and ergonomic interface.\n+\n+**Design Goals:**\n+1. **Predictable** - Consistent patterns across all commands\n+2. **Discoverable** - Self-documenting via `--robot-capabilities`\n+3. **Ergonomic** - Minimal typing, logical flag names\n+4. **Backward-compatible** - Breaking changes require deprecation period\n+\n+---\n+\n+## 1. Command Naming Patterns\n+\n+### 1.1 Core Session Operations\n+\n+Session-scoped commands use `=SESSION` syntax:\n+\n+```bash\n+--robot-send=SESSION        # Send prompts to agents\n+--robot-tail=SESSION        # Capture pane output\n+--robot-spawn=SESSION       # Create new session\n+--robot-context=SESSION     # Get context window usage\n+--robot-wait=SESSION        # Wait for agent states\n+--robot-interrupt=SESSION   # Send Ctrl+C to agents\n+--robot-activity=SESSION    # Get agent activity state\n+--robot-health=SESSION      # Get session health\n+--robot-diagnose=SESSION    # Comprehensive health check\n+```\n+\n+### 1.2 Global Commands\n+\n+Commands that operate globally (no session context) are bool flags:\n+\n+```bash\n+--robot-status              # List all sessions\n+--robot-version             # Version info\n+--robot-plan                # bv global plan\n+--robot-tools               # Tool inventory\n+--robot-capabilities        # API discovery\n+--robot-snapshot            # Unified state dump\n+--robot-triage              # bv triage analysis\n+--robot-dashboard           # Dashboard summary\n+```\n+\n+### 1.3 Tool Bridges\n+\n+External tool integrations follow `--robot-<tool>-<action>` pattern with **separate modifier flags**:\n+\n+```bash\n+# CORRECT: Bool flag + separate modifiers\n+ntm --robot-jfp-search --query=\"debugging\" --limit=10\n+ntm --robot-cass-search --query=\"auth error\" --since=7d\n+ntm --robot-xf-search --query=\"rust async\" --limit=20\n+ntm --robot-dcg-check --command=\"rm -rf /data\"\n+ntm --robot-mail-check --project=myproj --agent=cc_1\n+\n+# AVOID: Inline values in main flag (legacy pattern)\n+ntm --robot-jfp-search=\"debugging\"      # Deprecated\n+ntm --robot-cass-search=\"auth error\"    # Deprecated\n+```\n+\n+### 1.4 Resource Lookups\n+\n+Simple ID/path lookups MAY use inline values:\n+\n+```bash\n+--robot-bead-show=bd-123        # Single bead by ID\n+--robot-bead-claim=bd-123       # Claim bead by ID\n+--robot-forecast=bd-123         # Forecast for bead\n+--robot-impact=src/main.go      # Impact for file\n+--robot-schema=status           # Schema for type\n+```\n+\n+---\n+\n+## 2. Parameter Patterns\n+\n+### 2.1 Global Shared Modifiers\n+\n+These flags are shared across many commands and MUST NOT be tool-prefixed:\n+\n+| Flag | Description | Used With |\n+|------|-------------|-----------|\n+| `--limit=N` | Max results to return | search, list commands |\n+| `--offset=N` | Pagination offset | list commands |\n+| `--since=DATE` | Start date filter | search, history, diff |\n+| `--until=DATE` | End date filter | search commands |\n+| `--panes=1,2,3` | Filter to specific panes | session commands |\n+| `--lines=N` | Lines to capture | tail, inspect |\n+| `--query=Q` | Search query | search commands |\n+| `--type=T` | Filter by type | activity, alerts, beads |\n+| `--session=S` | Filter by session | alerts, palette |\n+| `--timeout=D` | Operation timeout | wait, ack, interrupt |\n+| `--verbose` | Detailed output | status, health commands |\n+| `--dry-run` | Preview without executing | send, spawn, restart |\n+| `--output=PATH` | Output file path | save, monitor |\n+\n+**Example (Correct):**\n+```bash\n+ntm --robot-cass-search --query=\"auth\" --limit=20 --since=7d\n+ntm --robot-alerts --type=error --session=myproject\n+ntm --robot-wait=myproject --timeout=2m --panes=1,2\n+```\n+\n+**Example (Deprecated):**\n+```bash\n+ntm --robot-cass-search=\"auth\" --cass-limit=20 --cass-since=7d  # Old pattern\n+ntm --robot-alerts --alerts-type=error --alerts-session=myproject  # Old pattern\n+```\n+\n+### 2.2 Tool-Specific Modifiers\n+\n+Only use tool prefix for options unique to that tool:\n+\n+| Flag | Description | Why Prefixed |\n+|------|-------------|--------------|\n+| `--spawn-cc=N` | Claude agents to spawn | spawn-specific |\n+| `--spawn-cod=N` | Codex agents to spawn | spawn-specific |\n+| `--spawn-gmi=N` | Gemini agents to spawn | spawn-specific |\n+| `--spawn-preset=NAME` | Use preset recipe | spawn-specific |\n+| `--probe-method=M` | Probe detection method | probe-specific |\n+| `--xf-mode=semantic` | XF search mode | xf-specific |\n+| `--bulk-strategy=S` | Bulk assign strategy | bulk-assign-specific |\n+\n+### 2.3 Aliases for Backward Compatibility\n+\n+When standardizing flags, keep old prefixed versions as aliases:\n+\n+```go\n+// Canonical (new)\n+rootCmd.Flags().IntVar(&limit, \"limit\", 20, \"Max results to return\")\n+// Alias (deprecated, kept for backward compatibility)\n+rootCmd.Flags().IntVar(&limit, \"cass-limit\", 20, \"DEPRECATED: use --limit\")\n+```\n+\n+---\n+\n+## 3. Output Envelope\n+\n+All robot commands MUST include these fields:\n+\n+```json\n+{\n+  \"success\": true,\n+  \"timestamp\": \"2026-01-22T10:30:00Z\",\n+  \"error\": null,\n+  \"error_code\": null,\n+  \"hint\": null\n+}\n+```\n+\n+### 3.1 Success Response\n+\n+```json\n+{\n+  \"success\": true,\n+  \"timestamp\": \"2026-01-22T10:30:00Z\",\n+  \"sessions\": [...],\n+  \"_agent_hints\": {\n+    \"summary\": \"3 sessions active, 12 agents total\"\n+  }\n+}\n+```\n+\n+### 3.2 Error Response\n+\n+```json\n+{\n+  \"success\": false,\n+  \"timestamp\": \"2026-01-22T10:30:00Z\",\n+  \"error\": \"Session 'myproject' not found\",\n+  \"error_code\": \"SESSION_NOT_FOUND\",\n+  \"hint\": \"Use --robot-status to list available sessions\"\n+}\n+```\n+\n+### 3.3 Standard Error Codes\n+\n+| Code | Meaning |\n+|------|---------|\n+| `SESSION_NOT_FOUND` | Session does not exist |\n+| `PANE_NOT_FOUND` | Pane does not exist |\n+| `TOOL_NOT_FOUND` | External tool not installed |\n+| `PROJECT_NOT_FOUND` | Project does not exist |\n+| `AGENT_NOT_FOUND` | Agent does not exist |\n+| `THREAD_NOT_FOUND` | Thread does not exist |\n+| `INVALID_FLAG` | Invalid flag combination |\n+| `INVALID_INPUT` | Invalid parameter value |\n+| `MISSING_REQUIRED` | Required parameter missing |\n+| `TIMEOUT` | Operation timed out |\n+| `NOT_IMPLEMENTED` | Feature not yet available |\n+| `PERMISSION_DENIED` | Authorization required |\n+| `INTERNAL_ERROR` | Unexpected internal error |\n+\n+---\n+\n+## 4. Exit Codes\n+\n+| Code | Meaning | When Used |\n+|------|---------|-----------|\n+| 0 | Success | Operation completed successfully |\n+| 1 | Error | Parse error, command failed, invalid input |\n+| 2 | Unavailable | Tool not installed, NOT_IMPLEMENTED |\n+\n+**Exit Code Mapping:**\n+- `TOOL_NOT_FOUND` \u2192 exit 2\n+- `NOT_IMPLEMENTED` \u2192 exit 2\n+- `MISSING_REQUIRED` \u2192 exit 1\n+- `INVALID_FLAG` \u2192 exit 1\n+- `INVALID_INPUT` \u2192 exit 1\n+- `SESSION_NOT_FOUND` \u2192 exit 1\n+- All other errors \u2192 exit 1\n+\n+---\n+\n+## 5. Pagination Pattern\n+\n+Commands that return lists MUST support pagination:\n+\n+```json\n+{\n+  \"success\": true,\n+  \"timestamp\": \"2026-01-22T10:30:00Z\",\n+  \"total_matches\": 150,\n+  \"offset\": 20,\n+  \"count\": 10,\n+  \"has_more\": true,\n+  \"items\": [...],\n+  \"_agent_hints\": {\n+    \"next_offset\": 30,\n+    \"pages_remaining\": 12\n+  }\n+}\n+```\n+\n+**Required Flags:**\n+- `--limit=N` - Max items to return (default varies by command)\n+- `--offset=N` - Skip first N items (default 0)\n+\n+**Required Response Fields:**\n+- `total_matches` - Total count before pagination\n+- `offset` - Current offset echoed back\n+- `count` - Number of items in current response\n+- `has_more` - Boolean indicating more results available\n+- `_agent_hints.next_offset` - Next offset value for convenience\n+\n+---\n+\n+## 6. Array Fields\n+\n+Critical arrays are ALWAYS present, even if empty:\n+\n+```json\n+{\n+  \"sessions\": [],\n+  \"agents\": [],\n+  \"messages\": [],\n+  \"hits\": []\n+}\n+```\n+\n+This allows safe iteration without null checks.\n+\n+---\n+\n+## 7. Optional Fields\n+\n+Use `omitempty` for optional fields - they are absent when not applicable:\n+\n+- `error`, `error_code`, `hint` - Only on error\n+- `_agent_hints` - Only when hints available\n+- `variant` - Only if agent has model variant\n+- `body` - Only when `--include-bodies` set\n+\n+---\n+\n+## 8. Agent Hints\n+\n+Include `_agent_hints` object with actionable suggestions:\n+\n+```json\n+{\n+  \"_agent_hints\": {\n+    \"summary\": \"Brief human-readable summary\",\n+    \"suggested_action\": \"What to do next\",\n+    \"next_offset\": 20,\n+    \"pages_remaining\": 5,\n+    \"safer_alternative\": \"Alternative command if blocked\",\n+    \"warnings\": [\"Any issues to be aware of\"]\n+  }\n+}\n+```\n+\n+---\n+\n+## 9. Filter Echo Pattern\n+\n+Commands with multiple filters SHOULD echo the active filters:\n+\n+```json\n+{\n+  \"success\": true,\n+  \"filters\": {\n+    \"status\": \"open\",\n+    \"type\": \"error\",\n+    \"session\": \"myproject\",\n+    \"since\": \"2026-01-01\",\n+    \"until\": null\n+  },\n+  \"items\": [...]\n+}\n+```\n+\n+This helps agents verify their filters were applied correctly.\n+\n+---\n+\n+## 10. Verbose Flag Pattern\n+\n+The `--verbose` flag is a global modifier that increases output detail.\n+\n+**When to implement `--verbose`:**\n+- Safety checks - show analysis details\n+- Status commands - show extended metadata\n+- Commands where abbreviated vs detailed output makes sense\n+\n+**Example (without --verbose):**\n+```json\n+{\n+  \"success\": true,\n+  \"allowed\": false,\n+  \"severity\": \"high\",\n+  \"rationale\": \"Destructive command\"\n+}\n+```\n+\n+**Example (with --verbose):**\n+```json\n+{\n+  \"success\": true,\n+  \"allowed\": false,\n+  \"severity\": \"high\",\n+  \"rationale\": \"Destructive command\",\n+  \"analysis\": {\n+    \"command_parsed\": [\"git\", \"reset\", \"--hard\"],\n+    \"flags_detected\": [\"--hard\"],\n+    \"risk_factors\": [\"discards uncommitted changes\"]\n+  }\n+}\n+```\n+\n+---\n+\n+## 11. Documentation Requirements\n+\n+Every robot command must document:\n+\n+1. **Command interface** with examples\n+2. **Output schema** with JSON example\n+3. **Error response** with JSON example (including error_code)\n+4. **Modifier flags** table with scope (global/tool-specific)\n+5. **Exit codes** (must follow standard)\n+6. **Unit tests** (80% coverage target)\n+\n+---\n+\n+## 12. Backward Compatibility\n+\n+- JSON output is the default and must remain stable\n+- TOON format is opt-in via `--robot-format=toon`\n+- Schema changes must be additive (new fields ok, removal requires deprecation)\n+- Deprecation period: 2 minor versions before removal\n+- Old prefixed flags remain as aliases during deprecation\n+\n+---\n+\n+## 13. Flag Deprecation Reference\n+\n+The following prefixed flags are deprecated. Use the canonical unprefixed form:\n+\n+### CASS Flags\n+| Deprecated | Canonical |\n+|------------|-----------|\n+| `--cass-limit` | `--limit` |\n+| `--cass-since` | `--since` |\n+| `--cass-agent` | `--agent` |\n+| `--cass-workspace` | `--workspace` |\n+\n+### JFP Flags\n+| Deprecated | Canonical |\n+|------------|-----------|\n+| `--jfp-category` | `--category` |\n+| `--jfp-tag` | `--tag` |\n+\n+---\n+\n+## 14. New Robot Command PR Checklist\n+\n+Use this checklist when adding or modifying a robot command:\n+\n+- **Naming:** Global commands are bool flags; session-scoped commands use `=SESSION`.\n+- **Modifiers:** Prefer global unprefixed flags (`--limit`, `--since`, `--type`). Keep deprecated prefixed aliases when standardizing.\n+- **Output Envelope:** Always include `success`, `timestamp`, and error fields (`error`, `error_code`, `hint`) per the standard schema.\n+- **Arrays:** Critical arrays are always present (empty slice, not null or omitted).\n+- **Pagination:** For list outputs, include `total_matches`, `offset`, `count`, `has_more`, and `_agent_hints.next_offset`.\n+- **Filters:** Echo active filters in a `filters` object when multiple filters are supported.\n+- **Errors & Exit Codes:** Use standard error codes and map to exit code 1 or 2 as specified.\n+- **Determinism:** Ensure stable ordering for arrays and schema fields (especially in JSON).\n+- **Docs:** Add/refresh examples and schema notes in this document; ensure `--robot-help` points here.\n+- **Capabilities:** Update `--robot-capabilities` output/schema if new fields or commands are added.\n+- **Tests:** Add unit tests for flag parsing, validation, and output; add/update E2E script with required log prefix and exit-code assertions.\n+\n+### Tokens Flags\n+| Deprecated | Canonical |\n+|------------|-----------|\n+| `--tokens-days` | `--days` |\n+| `--tokens-since` | `--since` |\n+| `--tokens-group-by` | `--group-by` |\n+| `--tokens-session` | `--session` |\n+| `--tokens-agent` | `--agent` |\n+\n+### History Flags\n+| Deprecated | Canonical |\n+|------------|-----------|\n+| `--history-pane` | `--pane` |\n+| `--history-type` | `--type` |\n+| `--history-last` | `--last` |\n+| `--history-since` | `--since` |\n+| `--history-stats` | `--stats` |\n+\n+### Activity Flags\n+| Deprecated | Canonical |\n+|------------|-----------|\n+| `--activity-type` | `--type` |\n+\n+### Wait Flags\n+| Deprecated | Canonical |\n+|------------|-----------|\n+| `--wait-timeout` | `--timeout` |\n+| `--wait-type` | `--type` |\n+| `--wait-panes` | `--panes` |\n+| `--wait-poll` | `--poll` |\n+| `--wait-any` | `--any` |\n+| `--wait-exit-on-error` | `--exit-on-error` |\n+| `--wait-transition` | `--transition` |\n+\n+### Route Flags\n+| Deprecated | Canonical |\n+|------------|-----------|\n+| `--route-type` | `--type` |\n+| `--route-strategy` | `--strategy` |\n+| `--route-exclude` | `--exclude` |\n+\n+### Files Flags\n+| Deprecated | Canonical |\n+|------------|-----------|\n+| `--files-window` | `--window` |\n+| `--files-limit` | `--limit` |\n+\n+### Inspect Flags\n+| Deprecated | Canonical |\n+|------------|-----------|\n+| `--inspect-index` | `--index` |\n+| `--inspect-lines` | `--lines` |\n+| `--inspect-code` | `--code` |\n+\n+### Metrics Flags\n+| Deprecated | Canonical |\n+|------------|-----------|\n+| `--metrics-period` | `--period` |\n+\n+### Alerts Flags\n+| Deprecated | Canonical |\n+|------------|-----------|\n+| `--alerts-severity` | `--severity` |\n+| `--alerts-type` | `--type` |\n+| `--alerts-session` | `--session` |\n+\n+### Beads Flags\n+| Deprecated | Canonical |\n+|------------|-----------|\n+| `--beads-status` | `--status` |\n+| `--beads-priority` | `--priority` |\n+| `--beads-assignee` | `--assignee` |\n+| `--beads-type` | `--type` |\n+| `--beads-limit` | `--limit` |\n+\n+### Summary/Diff Flags\n+| Deprecated | Canonical |\n+|------------|-----------|\n+| `--summary-since` | `--since` |\n+| `--diff-since` | `--since` |\n+\n+### Triage/Analysis Flags\n+| Deprecated | Canonical |\n+|------------|-----------|\n+| `--triage-limit` | `--limit` |\n+| `--attention-limit` | `--limit` |\n+| `--hotspots-limit` | `--limit` |\n+| `--relations-limit` | `--limit` |\n+| `--relations-threshold` | `--threshold` |\n+| `--file-beads-limit` | `--limit` |\n+\n+### Ack Flags\n+| Deprecated | Canonical |\n+|------------|-----------|\n+| `--ack-timeout` | `--timeout` |\n+| `--ack-poll` | `--poll` |\n+\n+### Save Flags\n+| Deprecated | Canonical |\n+|------------|-----------|\n+| `--save-output` | `--output` |\n+\n+### Replay Flags\n+| Deprecated | Canonical |\n+|------------|-----------|\n+| `--replay-id` | `--id` |\n+| `--replay-dry-run` | `--dry-run` |\n+\n+### Provider Flags\n+| Deprecated | Canonical |\n+|------------|-----------|\n+| `--account-status-provider` | `--provider` |\n+| `--accounts-list-provider` | `--provider` |\n+| `--quota-check-provider` | `--provider` |\n+\n+### Verbose Flags\n+| Deprecated | Canonical |\n+|------------|-----------|\n+| `--is-working-verbose` | `--verbose` |\n+| `--agent-health-verbose` | `--verbose` |\n+| `--smart-restart-verbose` | `--verbose` |\n+\n+### Palette Flags\n+| Deprecated | Canonical |\n+|------------|-----------|\n+| `--palette-session` | `--session` |\n+| `--palette-category` | `--category` |\n+| `--palette-search` | `--search` |\n+\n+### Dismiss Flags\n+| Deprecated | Canonical |\n+|------------|-----------|\n+| `--dismiss-session` | `--session` |\n+| `--dismiss-all` | `--all` |\n+\n+### Interrupt Flags\n+| Deprecated | Canonical |\n+|------------|-----------|\n+| `--interrupt-msg` | `--msg` |\n+| `--interrupt-all` | `--all` |\n+| `--interrupt-force` | `--force` |\n+| `--interrupt-no-wait` | `--no-wait` |\n+| `--interrupt-timeout` | `--timeout` |\n+\n+### Pipeline Flags\n+| Deprecated | Canonical |\n+|------------|-----------|\n+| `--pipeline-session` | `--session` |\n+| `--pipeline-vars` | `--vars` |\n+| `--pipeline-dry-run` | `--dry-run` |\n+| `--pipeline-background` | `--background` |\n+\n+### Diagnose Flags\n+| Deprecated | Canonical |\n+|------------|-----------|\n+| `--diagnose-fix` | `--fix` |\n+| `--diagnose-brief` | `--brief` |\n+| `--diagnose-pane` | `--pane` |\n+\n+### Markdown Flags\n+| Deprecated | Canonical |\n+|------------|-----------|\n+| `--md-compact` | `--compact` |\n+| `--md-session` | `--session` |\n+| `--md-sections` | `--sections` |\n+| `--md-max-beads` | `--max-beads` |\n+| `--md-max-alerts` | `--max-alerts` |\n+\n+### Bulk-Assign Flags\n+| Deprecated | Canonical |\n+|------------|-----------|\n+| `--bulk-strategy` | `--strategy` |\n+| `--skip-panes` | `--skip` |\n+| `--prompt-template` | `--template` |\n+\n+---\n+\n+## Quick Reference Card\n+\n+```\n+GLOBAL COMMANDS (bool flags)\n+  --robot-status          List all sessions\n+  --robot-version         Version info\n+  --robot-snapshot        Unified state dump\n+  --robot-capabilities    API discovery\n+\n+SESSION COMMANDS (=SESSION syntax)\n+  --robot-send=S          Send prompts\n+  --robot-tail=S          Capture output\n+  --robot-wait=S          Wait for state\n+  --robot-spawn=S         Create session\n+\n+GLOBAL MODIFIERS (unprefixed)\n+  --limit=N               Max results\n+  --offset=N              Pagination offset\n+  --since=DATE            Date filter\n+  --query=Q               Search query\n+  --type=T                Type filter\n+  --panes=1,2             Pane filter\n+  --timeout=D             Timeout\n+  --verbose               Detailed output\n+  --dry-run               Preview mode\n+\n+OUTPUT FORMAT\n+  --robot-format=json     JSON (default)\n+  --robot-format=toon     Token-efficient\n+  --robot-markdown        Markdown tables\n+  --robot-terse           Single-line state\n+```\n+\n+---\n+\n+*Last updated: 2026-01-23*\n+*Reference: bd-3045p*"
    }
  ]
}
